{"code":200,"message":"操作成功","data":{"content":[{"id":16,"category":"A","competitionName":"Bad Status","awardLevel":"National","awardGrade":"First","awardUnit":"U","organizer":null,"coOrganizer":null,"awardDate":null,"advisor":"T","participants":"S","certificatePath":null,"status":"PENDING","applicantId":4,"applicantName":"Student One","applyTime":"2026-05-13T05:17:28","archiveTime":null,"fileUrlList":[]}],"pageable":{"pageNumber":0,"pageSize":1,"sort":{"empty":false,"sorted":true,"unsorted":false},"offset":0,"paged":true,"unpaged":false},"last":false,"totalPages":13,"totalElements":13,"size":1,"number":0,"sort":{"empty":false,"sorted":true,"unsorted":false},"first":true,"numberOfElements":1,"empty":false}}